<svg width="24" height="24" viewBox="0 0 24 24" fill="none" xmlns="http://www.w3.org/2000/svg">
<path d="M21.32 9.55L19.43 8.92L20.32 7.14C20.4102 6.95369 20.4404 6.74397 20.4064 6.53978C20.3723 6.33558 20.2758 6.14699 20.13 6L18 3.87C17.8522 3.72209 17.6618 3.62421 17.4555 3.59013C17.2493 3.55605 17.0375 3.58748 16.85 3.68L15.07 4.57L14.44 2.68C14.3735 2.483 14.2472 2.31163 14.0787 2.18975C13.9102 2.06787 13.7079 2.00155 13.5 2H10.5C10.2904 1.99946 10.0858 2.06482 9.91537 2.18685C9.7449 2.30887 9.61709 2.48138 9.55 2.68L8.92 4.57L7.14 3.68C6.95369 3.58978 6.74397 3.55961 6.53978 3.59364C6.33558 3.62767 6.14699 3.72423 6 3.87L3.87 6C3.72209 6.14777 3.62421 6.33818 3.59013 6.54446C3.55605 6.75074 3.58748 6.96251 3.68 7.15L4.57 8.93L2.68 9.56C2.483 9.62654 2.31163 9.75283 2.18975 9.92131C2.06787 10.0898 2.00155 10.2921 2 10.5V13.5C1.99946 13.7096 2.06482 13.9142 2.18685 14.0846C2.30887 14.2551 2.48138 14.3829 2.68 14.45L4.57 15.08L3.68 16.86C3.58978 17.0463 3.55961 17.256 3.59364 17.4602C3.62767 17.6644 3.72423 17.853 3.87 18L6 20.13C6.14777 20.2779 6.33818 20.3758 6.54446 20.4099C6.75074 20.444 6.96251 20.4125 7.15 20.32L8.93 19.43L9.56 21.32C9.62709 21.5186 9.7549 21.6911 9.92537 21.8132C10.0958 21.9352 10.3004 22.0005 10.51 22H13.51C13.7196 22.0005 13.9242 21.9352 14.0946 21.8132C14.2651 21.6911 14.3929 21.5186 14.46 21.32L15.09 19.43L16.87 20.32C17.0551 20.4079 17.2628 20.4369 17.4649 20.4029C17.667 20.3689 17.8538 20.2737 18 20.13L20.13 18C20.2779 17.8522 20.3758 17.6618 20.4099 17.4555C20.444 17.2493 20.4125 17.0375 20.32 16.85L19.43 15.07L21.32 14.44C21.517 14.3735 21.6884 14.2472 21.8103 14.0787C21.9321 13.9102 21.9985 13.7079 22 13.5V10.5C22.0005 10.2904 21.9352 10.0858 21.8132 9.91537C21.6911 9.7449 21.5186 9.61709 21.32 9.55ZM20 12.78L18.8 13.18C18.5241 13.2695 18.2709 13.418 18.0581 13.6151C17.8452 13.8122 17.6778 14.0533 17.5675 14.3216C17.4571 14.5899 17.4064 14.879 17.419 15.1688C17.4315 15.4586 17.5069 15.7422 17.64 16L18.21 17.14L17.11 18.24L16 17.64C15.7436 17.5122 15.4627 17.4411 15.1763 17.4313C14.89 17.4215 14.6049 17.4734 14.3403 17.5834C14.0758 17.6934 13.8379 17.8589 13.6429 18.0688C13.4479 18.2787 13.3003 18.5281 13.21 18.8L12.81 20H11.22L10.82 18.8C10.7305 18.5241 10.582 18.2709 10.3849 18.0581C10.1878 17.8452 9.94671 17.6778 9.67842 17.5675C9.41014 17.4571 9.12105 17.4064 8.83123 17.419C8.5414 17.4315 8.25777 17.5069 8 17.64L6.86 18.21L5.76 17.11L6.36 16C6.4931 15.7422 6.56852 15.4586 6.58105 15.1688C6.59358 14.879 6.5429 14.5899 6.43254 14.3216C6.32218 14.0533 6.15478 13.8122 5.94195 13.6151C5.72912 13.418 5.47595 13.2695 5.2 13.18L4 12.78V11.22L5.2 10.82C5.47595 10.7305 5.72912 10.582 5.94195 10.3849C6.15478 10.1878 6.32218 9.94671 6.43254 9.67842C6.5429 9.41014 6.59358 9.12105 6.58105 8.83123C6.56852 8.5414 6.4931 8.25777 6.36 8L5.79 6.89L6.89 5.79L8 6.36C8.25777 6.4931 8.5414 6.56852 8.83123 6.58105C9.12105 6.59358 9.41014 6.5429 9.67842 6.43254C9.94671 6.32218 10.1878 6.15478 10.3849 5.94195C10.582 5.72912 10.7305 5.47595 10.82 5.2L11.22 4H12.78L13.18 5.2C13.2695 5.47595 13.418 5.72912 13.6151 5.94195C13.8122 6.15478 14.0533 6.32218 14.3216 6.43254C14.5899 6.5429 14.879 6.59358 15.1688 6.58105C15.4586 6.56852 15.7422 6.4931 16 6.36L17.14 5.79L18.24 6.89L17.64 8C17.5122 8.25645 17.4411 8.53735 17.4313 8.82369C17.4215 9.11003 17.4734 9.39513 17.5834 9.65969C17.6934 9.92424 17.8589 10.1621 18.0688 10.3571C18.2787 10.5521 18.5281 10.6997 18.8 10.79L20 11.19V12.78ZM12 8C11.2089 8 10.4355 8.2346 9.77772 8.67413C9.11993 9.11365 8.60724 9.73836 8.30448 10.4693C8.00173 11.2002 7.92252 12.0044 8.07686 12.7804C8.2312 13.5563 8.61217 14.269 9.17158 14.8284C9.73099 15.3878 10.4437 15.7688 11.2196 15.9231C11.9956 16.0775 12.7998 15.9983 13.5307 15.6955C14.2616 15.3928 14.8864 14.8801 15.3259 14.2223C15.7654 13.5645 16 12.7911 16 12C16 10.9391 15.5786 9.92172 14.8284 9.17158C14.0783 8.42143 13.0609 8 12 8ZM12 14C11.6044 14 11.2178 13.8827 10.8889 13.6629C10.56 13.4432 10.3036 13.1308 10.1522 12.7654C10.0009 12.3999 9.96126 11.9978 10.0384 11.6098C10.1156 11.2219 10.3061 10.8655 10.5858 10.5858C10.8655 10.3061 11.2219 10.1156 11.6098 10.0384C11.9978 9.96126 12.3999 10.0009 12.7654 10.1522C13.1308 10.3036 13.4432 10.56 13.6629 10.8889C13.8827 11.2178 14 11.6044 14 12C14 12.5304 13.7893 13.0391 13.4142 13.4142C13.0391 13.7893 12.5304 14 12 14Z" fill="#5CA5FA"/>
</svg>
