<svg viewBox="0 0 24 24" xmlns="http://www.w3.org/2000/svg">
<path d="M19 3H18V2C18 1.44772 17.5523 1 17 1C16.4477 1 16 1.44772 16 2V3H8V2C8 1.44772 7.55228 1 7 1C6.44772 1 6 1.44772 6 2V3H5C3.89 3 3 3.9 3 5V19C3 20.1 3.89 21 5 21H19C20.1 21 21 20.1 21 19V5C21 3.9 20.1 3 19 3ZM19 19H5V9H19V19ZM19 7H5V5H19V7ZM7 12C7 11.4477 7.44772 11 8 11H11C11.5523 11 12 11.4477 12 12V15C12 15.5523 11.5523 16 11 16H8C7.44772 16 7 15.5523 7 15V12Z" />
</svg>
